{"count":363,"next":"https://ll.thespacedevs.com/2.0.0/launch/upcoming/?limit=10&offset=10","previous":null,"results":[{"id":"742daf86-0810-4df5-8a7d-1ff72a14e261","url":"https://ll.thespacedevs.com/2.0.0/launch/742daf86-0810-4df5-8a7d-1ff72a14e261/","launch_library_id":null,"slug":"falcon-9-block-5-starlink-group-17-26","name":"Falcon 9 Block 5 | Starlink Group 17-26","status":{"id":3,"name":"Success"},"net":"2026-02-25T14:17:49Z","window_end":"2026-02-25T18:00:00Z","window_start":"2026-02-25T14:00:00Z","inhold":false,"tbdtime":false,"tbddate":false,"probability":null,"holdreason":"","failreason":"","hashtag":null,"launch_service_provider":{"id":121,"url":"https://ll.thespacedevs.com/2.0.0/agencies/121/","name":"SpaceX","type":"Commercial"},"rocket":{"id":8913,"configuration":{"id":164,"launch_library_id":188,"url":"https://ll.thespacedevs.com/2.0.0/config/launcher/164/","name":"Falcon 9","family":"Falcon","full_name":"Falcon 9 Block 5","variant":"Block 5"}},"mission":{"id":7505,"launch_library_id":null,"name":"Starlink Group 17-26","description":"A batch of 25 satellites for the Starlink mega-constellation - SpaceX's project for space-based Internet communication system.","launch_designator":null,"type":"Communications","orbit":{"id":8,"name":"Low Earth Orbit","abbrev":"LEO"}},"pad":{"id":16,"url":"https://ll.thespacedevs.com/2.0.0/pad/16/","agency_id":null,"name":"Space Launch Complex 4E","info_url":null,"wiki_url":"https://en.wikipedia.org/wiki/Vandenberg_Space_Launch_Complex_4#SLC-4E","map_url":"https://www.google.com/maps?q=34.632,-120.611","latitude":"34.632","longitude":"-120.611","location":{"id":11,"url":"https://ll.thespacedevs.com/2.0.0/location/11/","name":"Vandenberg SFB, CA, USA","country_code":"USA","map_image":"https://thespacedevs-prod.nyc3.digitaloceanspaces.com/media/map_images/location_11_20200803142416.jpg","total_launch_count":864,"total_landing_count":33},"map_image":"https://thespacedevs-prod.nyc3.digitaloceanspaces.com/media/map_images/pad_16_20200803143532.jpg","total_launch_count":250},"webcast_live":false,"image":"https://thespacedevs-prod.nyc3.digitaloceanspaces.com/media/images/falcon2520925_image_20221009234147.png","infographic":null,"program":[{"id":25,"url":"https://ll.thespacedevs.com/2.0.0/program/25/","name":"Starlink","description":"Starlink is a satellite internet constellation operated by American aerospace company SpaceX","agencies":[{"id":121,"url":"https://ll.thespacedevs.com/2.0.0/agencies/121/","name":"SpaceX","type":"Commercial"}],"image_url":"https://thespacedevs-prod.nyc3.digitaloceanspaces.com/media/images/starlink_program_20231228154508.jpeg","start_date":"2018-02-22T14:17:00Z","end_date":null,"info_url":"https://starlink.com","wiki_url":"https://en.wikipedia.org/wiki/Starlink"}]},{"id":"3785d31d-770f-4622-b7e4-a683dbd34c39","url":"https://ll.thespacedevs.com/2.0.0/launch/3785d31d-770f-4622-b7e4-a683dbd34c39/","launch_library_id":null,"slug":"haste-thats-not-a-knife-dart-ae","name":"HASTE | That's Not A Knife (DART AE)","status":{"id":2,"name":"TBD"},"net":"2026-02-26T21:00:00Z","window_end":"2026-02-27T00:45:00Z","window_start":"2026-02-26T21:00:00Z","inhold":false,"tbdtime":false,"tbddate":false,"probability":null,"holdreason":"","failreason":"","hashtag":null,"launch_service_provider":{"id":147,"url":"https://ll.thespacedevs.com/2.0.0/agencies/147/","name":"Rocket Lab","type":"Commercial"},"rocket":{"id":8093,"configuration":{"id":26,"launch_library_id":148,"url":"https://ll.thespacedevs.com/2.0.0/config/launcher/26/","name":"Electron","family":"","full_name":"Electron","variant":""}},"mission":{"id":6648,"launch_library_id":null,"name":"That's Not A Knife (DART AE)","description":"Payload is a scramjet-powered hypersonic vehicle developed by by Australian company Hypersonix.","launch_designator":null,"type":"Government/Top Secret","orbit":{"id":15,"name":"Suborbital","abbrev":"Sub"}},"pad":{"id":79,"url":"https://ll.thespacedevs.com/2.0.0/pad/79/","agency_id":147,"name":"Rocket Lab Launch Complex 2 (Launch Area 0 C)","info_url":null,"wiki_url":null,"map_url":"https://www.google.com/maps?q=37.833262,-75.488235","latitude":"37.833262","longitude":"-75.488235","location":{"id":21,"url":"https://ll.thespacedevs.com/2.0.0/location/21/","name":"Wallops Flight Facility, Virginia, USA","country_code":"USA","map_image":"https://thespacedevs-prod.nyc3.digitaloceanspaces.com/media/map_images/location_21_20200803142423.jpg","total_launch_count":84,"total_landing_count":0},"map_image":"https://thespacedevs-prod.nyc3.digitaloceanspaces.com/media/map_images/pad_79_20200803143607.jpg","total_launch_count":10},"webcast_live":false,"image":"https://thespacedevs-prod.nyc3.digitaloceanspaces.com/media/images/electron_image_20190705175640.jpeg","infographic":null,"program":[]},{"id":"aeccc82e-4a01-46dc-a893-1d6d098973e2","url":"https://ll.thespacedevs.com/2.0.0/launch/aeccc82e-4a01-46dc-a893-1d6d098973e2/","launch_library_id":null,"slug":"falcon-9-block-5-starlink-group-6-108","name":"Falcon 9 Block 5 | Starlink Group 6-108","status":{"id":1,"name":"Go"},"net":"2026-02-27T09:52:00Z","window_end":"2026-02-27T13:52:00Z","window_start":"2026-02-27T09:52:00Z","inhold":false,"tbdtime":false,"tbddate":false,"probability":null,"holdreason":"","failreason":"","hashtag":null,"launch_service_provider":{"id":121,"url":"https://ll.thespacedevs.com/2.0.0/agencies/121/","name":"SpaceX","type":"Commercial"},"rocket":{"id":8917,"configuration":{"id":164,"launch_library_id":188,"url":"https://ll.thespacedevs.com/2.0.0/config/launcher/164/","name":"Falcon 9","family":"Falcon","full_name":"Falcon 9 Block 5","variant":"Block 5"}},"mission":{"id":7509,"launch_library_id":null,"name":"Starlink Group 6-108","description":"A batch of 29 satellites for the Starlink mega-constellation - SpaceX's project for space-based Internet communication system.","launch_designator":null,"type":"Communications","orbit":{"id":8,"name":"Low Earth Orbit","abbrev":"LEO"}},"pad":{"id":80,"url":"https://ll.thespacedevs.com/2.0.0/pad/80/","agency_id":121,"name":"Space Launch Complex 40","info_url":null,"wiki_url":"https://en.wikipedia.org/wiki/Cape_Canaveral_Air_Force_Station_Space_Launch_Complex_40","map_url":"https://www.google.com/maps?q=28.56194122,-80.57735736","latitude":"28.56194122","longitude":"-80.57735736","location":{"id":12,"url":"https://ll.thespacedevs.com/2.0.0/location/12/","name":"Cape Canaveral SFS, FL, USA","country_code":"USA","map_image":"https://thespacedevs-prod.nyc3.digitaloceanspaces.com/media/map_images/location_12_20200803142519.jpg","total_launch_count":1089,"total_landing_count":71},"map_image":"https://thespacedevs-prod.nyc3.digitaloceanspaces.com/media/map_images/pad_80_20200803143323.jpg","total_launch_count":366},"webcast_live":false,"image":"https://thespacedevs-prod.nyc3.digitaloceanspaces.com/media/images/falcon2520925_image_20221009234147.png","infographic":null,"program":[{"id":25,"url":"https://ll.thespacedevs.com/2.0.0/program/25/","name":"Starlink","description":"Starlink is a satellite internet constellation operated by American aerospace company SpaceX","agencies":[{"id":121,"url":"https://ll.thespacedevs.com/2.0.0/agencies/121/","name":"SpaceX","type":"Commercial"}],"image_url":"https://thespacedevs-prod.nyc3.digitaloceanspaces.com/media/images/starlink_program_20231228154508.jpeg","start_date":"2018-02-22T14:17:00Z","end_date":null,"info_url":"https://starlink.com","wiki_url":"https://en.wikipedia.org/wiki/Starlink"}]},{"id":"3f6de963-7197-48aa-a49f-6c944cbf85e9","url":"https://ll.thespacedevs.com/2.0.0/launch/3f6de963-7197-48aa-a49f-6c944cbf85e9/","launch_library_id":null,"slug":"firefly-alpha-stairway-to-seven","name":"Firefly Alpha | Stairway to Seven","status":{"id":1,"name":"Go"},"net":"2026-02-28T00:50:00Z","window_end":"2026-02-28T04:58:00Z","window_start":"2026-02-28T00:50:00Z","inhold":false,"tbdtime":false,"tbddate":false,"probability":null,"holdreason":"","failreason":"","hashtag":null,"launch_service_provider":{"id":265,"url":"https://ll.thespacedevs.com/2.0.0/agencies/265/","name":"Firefly Aerospace","type":"Commercial"},"rocket":{"id":8795,"configuration":{"id":179,"launch_library_id":216,"url":"https://ll.thespacedevs.com/2.0.0/config/launcher/179/","name":"Firefly Alpha","family":"Firefly Alpha","full_name":"Firefly Alpha","variant":""}},"mission":{"id":7386,"launch_library_id":null,"name":"Stairway to Seven","description":"Firefly Alpha's Flight 7 will be a test flight and return-To-Flight for the launch vehicle after its April 2025 launch failure. It will test and validate key systems ahead of Firefly’s Block II configuration upgrade on Flight 8 that’s designed to enhance reliability and manufacturability across the vehicle.\r\n\r\nFlight 7 will be the last flown in Alpha’s current configuration and will test multiple Block II subsystems, including the in-house avionics and thermal improvements, to gain flight heritage and validate lessons learned ahead of the full configuration upgrade on Flight 8.","launch_designator":null,"type":"Test Flight","orbit":{"id":8,"name":"Low Earth Orbit","abbrev":"LEO"}},"pad":{"id":39,"url":"https://ll.thespacedevs.com/2.0.0/pad/39/","agency_id":null,"name":"Space Launch Complex 2W","info_url":null,"wiki_url":"https://en.wikipedia.org/wiki/Vandenberg_Space_Launch_Complex_2","map_url":"https://www.google.com/maps?q=34.7556,-120.6224","latitude":"34.7556","longitude":"-120.6224","location":{"id":11,"url":"https://ll.thespacedevs.com/2.0.0/location/11/","name":"Vandenberg SFB, CA, USA","country_code":"USA","map_image":"https://thespacedevs-prod.nyc3.digitaloceanspaces.com/media/map_images/location_11_20200803142416.jpg","total_launch_count":864,"total_landing_count":33},"map_image":"https://thespacedevs-prod.nyc3.digitaloceanspaces.com/media/map_images/pad_39_20200803143542.jpg","total_launch_count":98},"webcast_live":false,"image":"https://thespacedevs-prod.nyc3.digitaloceanspaces.com/media/images/firefly_alpha_l_image_20240605174156.jpeg","infographic":null,"program":[]},{"id":"887eb3dc-ead1-4fef-87a1-b490e780f43a","url":"https://ll.thespacedevs.com/2.0.0/launch/887eb3dc-ead1-4fef-87a1-b490e780f43a/","launch_library_id":null,"slug":"falcon-9-block-5-starlink-group-17-23","name":"Falcon 9 Block 5 | Starlink Group 17-23","status":{"id":1,"name":"Go"},"net":"2026-03-01T08:00:00Z","window_end":"2026-03-01T12:00:00Z","window_start":"2026-03-01T08:00:00Z","inhold":false,"tbdtime":false,"tbddate":false,"probability":null,"holdreason":"","failreason":"","hashtag":null,"launch_service_provider":{"id":121,"url":"https://ll.thespacedevs.com/2.0.0/agencies/121/","name":"SpaceX","type":"Commercial"},"rocket":{"id":8915,"configuration":{"id":164,"launch_library_id":188,"url":"https://ll.thespacedevs.com/2.0.0/config/launcher/164/","name":"Falcon 9","family":"Falcon","full_name":"Falcon 9 Block 5","variant":"Block 5"}},"mission":{"id":7507,"launch_library_id":null,"name":"Starlink Group 17-23","description":"A batch of 25 satellites for the Starlink mega-constellation - SpaceX's project for space-based Internet communication system.","launch_designator":null,"type":"Communications","orbit":{"id":8,"name":"Low Earth Orbit","abbrev":"LEO"}},"pad":{"id":16,"url":"https://ll.thespacedevs.com/2.0.0/pad/16/","agency_id":null,"name":"Space Launch Complex 4E","info_url":null,"wiki_url":"https://en.wikipedia.org/wiki/Vandenberg_Space_Launch_Complex_4#SLC-4E","map_url":"https://www.google.com/maps?q=34.632,-120.611","latitude":"34.632","longitude":"-120.611","location":{"id":11,"url":"https://ll.thespacedevs.com/2.0.0/location/11/","name":"Vandenberg SFB, CA, USA","country_code":"USA","map_image":"https://thespacedevs-prod.nyc3.digitaloceanspaces.com/media/map_images/location_11_20200803142416.jpg","total_launch_count":864,"total_landing_count":33},"map_image":"https://thespacedevs-prod.nyc3.digitaloceanspaces.com/media/map_images/pad_16_20200803143532.jpg","total_launch_count":250},"webcast_live":false,"image":"https://thespacedevs-prod.nyc3.digitaloceanspaces.com/media/images/falcon2520925_image_20221009234147.png","infographic":null,"program":[{"id":25,"url":"https://ll.thespacedevs.com/2.0.0/program/25/","name":"Starlink","description":"Starlink is a satellite internet constellation operated by American aerospace company SpaceX","agencies":[{"id":121,"url":"https://ll.thespacedevs.com/2.0.0/agencies/121/","name":"SpaceX","type":"Commercial"}],"image_url":"https://thespacedevs-prod.nyc3.digitaloceanspaces.com/media/images/starlink_program_20231228154508.jpeg","start_date":"2018-02-22T14:17:00Z","end_date":null,"info_url":"https://starlink.com","wiki_url":"https://en.wikipedia.org/wiki/Starlink"}]},{"id":"3f71a8a7-118f-460c-953b-984de24aba5c","url":"https://ll.thespacedevs.com/2.0.0/launch/3f71a8a7-118f-460c-953b-984de24aba5c/","launch_library_id":null,"slug":"falcon-9-block-5-starlink-group-10-41","name":"Falcon 9 Block 5 | Starlink Group 10-41","status":{"id":1,"name":"Go"},"net":"2026-03-02T00:07:00Z","window_end":"2026-03-02T04:07:00Z","window_start":"2026-03-02T00:07:00Z","inhold":false,"tbdtime":false,"tbddate":false,"probability":null,"holdreason":"","failreason":"","hashtag":null,"launch_service_provider":{"id":121,"url":"https://ll.thespacedevs.com/2.0.0/agencies/121/","name":"SpaceX","type":"Commercial"},"rocket":{"id":8919,"configuration":{"id":164,"launch_library_id":188,"url":"https://ll.thespacedevs.com/2.0.0/config/launcher/164/","name":"Falcon 9","family":"Falcon","full_name":"Falcon 9 Block 5","variant":"Block 5"}},"mission":{"id":7511,"launch_library_id":null,"name":"Starlink Group 10-41","description":"A batch of 29 satellites for the Starlink mega-constellation - SpaceX's project for space-based Internet communication system.","launch_designator":null,"type":"Communications","orbit":{"id":8,"name":"Low Earth Orbit","abbrev":"LEO"}},"pad":{"id":80,"url":"https://ll.thespacedevs.com/2.0.0/pad/80/","agency_id":121,"name":"Space Launch Complex 40","info_url":null,"wiki_url":"https://en.wikipedia.org/wiki/Cape_Canaveral_Air_Force_Station_Space_Launch_Complex_40","map_url":"https://www.google.com/maps?q=28.56194122,-80.57735736","latitude":"28.56194122","longitude":"-80.57735736","location":{"id":12,"url":"https://ll.thespacedevs.com/2.0.0/location/12/","name":"Cape Canaveral SFS, FL, USA","country_code":"USA","map_image":"https://thespacedevs-prod.nyc3.digitaloceanspaces.com/media/map_images/location_12_20200803142519.jpg","total_launch_count":1089,"total_landing_count":71},"map_image":"https://thespacedevs-prod.nyc3.digitaloceanspaces.com/media/map_images/pad_80_20200803143323.jpg","total_launch_count":366},"webcast_live":false,"image":"https://thespacedevs-prod.nyc3.digitaloceanspaces.com/media/images/falcon2520925_image_20221009234147.png","infographic":null,"program":[{"id":25,"url":"https://ll.thespacedevs.com/2.0.0/program/25/","name":"Starlink","description":"Starlink is a satellite internet constellation operated by American aerospace company SpaceX","agencies":[{"id":121,"url":"https://ll.thespacedevs.com/2.0.0/agencies/121/","name":"SpaceX","type":"Commercial"}],"image_url":"https://thespacedevs-prod.nyc3.digitaloceanspaces.com/media/images/starlink_program_20231228154508.jpeg","start_date":"2018-02-22T14:17:00Z","end_date":null,"info_url":"https://starlink.com","wiki_url":"https://en.wikipedia.org/wiki/Starlink"}]},{"id":"5d5e17f4-292b-45f6-ab53-05437cf63ce0","url":"https://ll.thespacedevs.com/2.0.0/launch/5d5e17f4-292b-45f6-ab53-05437cf63ce0/","launch_library_id":null,"slug":"falcon-9-block-5-starlink-group-10-40","name":"Falcon 9 Block 5 | Starlink Group 10-40","status":{"id":1,"name":"Go"},"net":"2026-03-04T06:58:00Z","window_end":"2026-03-04T10:58:00Z","window_start":"2026-03-04T06:58:00Z","inhold":false,"tbdtime":false,"tbddate":false,"probability":null,"holdreason":"","failreason":"","hashtag":null,"launch_service_provider":{"id":121,"url":"https://ll.thespacedevs.com/2.0.0/agencies/121/","name":"SpaceX","type":"Commercial"},"rocket":{"id":8921,"configuration":{"id":164,"launch_library_id":188,"url":"https://ll.thespacedevs.com/2.0.0/config/launcher/164/","name":"Falcon 9","family":"Falcon","full_name":"Falcon 9 Block 5","variant":"Block 5"}},"mission":{"id":7513,"launch_library_id":null,"name":"Starlink Group 10-40","description":"A batch of 29 satellites for the Starlink mega-constellation - SpaceX's project for space-based Internet communication system.","launch_designator":null,"type":"Communications","orbit":{"id":8,"name":"Low Earth Orbit","abbrev":"LEO"}},"pad":{"id":80,"url":"https://ll.thespacedevs.com/2.0.0/pad/80/","agency_id":121,"name":"Space Launch Complex 40","info_url":null,"wiki_url":"https://en.wikipedia.org/wiki/Cape_Canaveral_Air_Force_Station_Space_Launch_Complex_40","map_url":"https://www.google.com/maps?q=28.56194122,-80.57735736","latitude":"28.56194122","longitude":"-80.57735736","location":{"id":12,"url":"https://ll.thespacedevs.com/2.0.0/location/12/","name":"Cape Canaveral SFS, FL, USA","country_code":"USA","map_image":"https://thespacedevs-prod.nyc3.digitaloceanspaces.com/media/map_images/location_12_20200803142519.jpg","total_launch_count":1089,"total_landing_count":71},"map_image":"https://thespacedevs-prod.nyc3.digitaloceanspaces.com/media/map_images/pad_80_20200803143323.jpg","total_launch_count":366},"webcast_live":false,"image":"https://thespacedevs-prod.nyc3.digitaloceanspaces.com/media/images/falcon2520925_image_20221009234147.png","infographic":null,"program":[{"id":25,"url":"https://ll.thespacedevs.com/2.0.0/program/25/","name":"Starlink","description":"Starlink is a satellite internet constellation operated by American aerospace company SpaceX","agencies":[{"id":121,"url":"https://ll.thespacedevs.com/2.0.0/agencies/121/","name":"SpaceX","type":"Commercial"}],"image_url":"https://thespacedevs-prod.nyc3.digitaloceanspaces.com/media/images/starlink_program_20231228154508.jpeg","start_date":"2018-02-22T14:17:00Z","end_date":null,"info_url":"https://starlink.com","wiki_url":"https://en.wikipedia.org/wiki/Starlink"}]},{"id":"12e62caf-f4aa-4f28-a3bd-f9c8a44b707d","url":"https://ll.thespacedevs.com/2.0.0/launch/12e62caf-f4aa-4f28-a3bd-f9c8a44b707d/","launch_library_id":null,"slug":"falcon-9-block-5-starlink-group-17-18","name":"Falcon 9 Block 5 | Starlink Group 17-18","status":{"id":1,"name":"Go"},"net":"2026-03-04T21:00:00Z","window_end":"2026-03-05T01:00:00Z","window_start":"2026-03-04T21:00:00Z","inhold":false,"tbdtime":false,"tbddate":false,"probability":null,"holdreason":"","failreason":"","hashtag":null,"launch_service_provider":{"id":121,"url":"https://ll.thespacedevs.com/2.0.0/agencies/121/","name":"SpaceX","type":"Commercial"},"rocket":{"id":8920,"configuration":{"id":164,"launch_library_id":188,"url":"https://ll.thespacedevs.com/2.0.0/config/launcher/164/","name":"Falcon 9","family":"Falcon","full_name":"Falcon 9 Block 5","variant":"Block 5"}},"mission":{"id":7512,"launch_library_id":null,"name":"Starlink Group 17-18","description":"A batch of 25 satellites for the Starlink mega-constellation - SpaceX's project for space-based Internet communication system.","launch_designator":null,"type":"Communications","orbit":{"id":8,"name":"Low Earth Orbit","abbrev":"LEO"}},"pad":{"id":16,"url":"https://ll.thespacedevs.com/2.0.0/pad/16/","agency_id":null,"name":"Space Launch Complex 4E","info_url":null,"wiki_url":"https://en.wikipedia.org/wiki/Vandenberg_Space_Launch_Complex_4#SLC-4E","map_url":"https://www.google.com/maps?q=34.632,-120.611","latitude":"34.632","longitude":"-120.611","location":{"id":11,"url":"https://ll.thespacedevs.com/2.0.0/location/11/","name":"Vandenberg SFB, CA, USA","country_code":"USA","map_image":"https://thespacedevs-prod.nyc3.digitaloceanspaces.com/media/map_images/location_11_20200803142416.jpg","total_launch_count":864,"total_landing_count":33},"map_image":"https://thespacedevs-prod.nyc3.digitaloceanspaces.com/media/map_images/pad_16_20200803143532.jpg","total_launch_count":250},"webcast_live":false,"image":"https://thespacedevs-prod.nyc3.digitaloceanspaces.com/media/images/falcon2520925_image_20221009234147.png","infographic":null,"program":[{"id":25,"url":"https://ll.thespacedevs.com/2.0.0/program/25/","name":"Starlink","description":"Starlink is a satellite internet constellation operated by American aerospace company SpaceX","agencies":[{"id":121,"url":"https://ll.thespacedevs.com/2.0.0/agencies/121/","name":"SpaceX","type":"Commercial"}],"image_url":"https://thespacedevs-prod.nyc3.digitaloceanspaces.com/media/images/starlink_program_20231228154508.jpeg","start_date":"2018-02-22T14:17:00Z","end_date":null,"info_url":"https://starlink.com","wiki_url":"https://en.wikipedia.org/wiki/Starlink"}]},{"id":"8701f102-a33e-450b-87b1-660679aab736","url":"https://ll.thespacedevs.com/2.0.0/launch/8701f102-a33e-450b-87b1-660679aab736/","launch_library_id":null,"slug":"falcon-9-block-5-echostar-25","name":"Falcon 9 Block 5 | EchoStar 25","status":{"id":2,"name":"TBD"},"net":"2026-03-08T00:00:00Z","window_end":"2026-03-08T00:00:00Z","window_start":"2026-03-08T00:00:00Z","inhold":false,"tbdtime":true,"tbddate":false,"probability":null,"holdreason":"","failreason":"","hashtag":null,"launch_service_provider":{"id":121,"url":"https://ll.thespacedevs.com/2.0.0/agencies/121/","name":"SpaceX","type":"Commercial"},"rocket":{"id":8647,"configuration":{"id":164,"launch_library_id":188,"url":"https://ll.thespacedevs.com/2.0.0/config/launcher/164/","name":"Falcon 9","family":"Falcon","full_name":"Falcon 9 Block 5","variant":"Block 5"}},"mission":{"id":7239,"launch_library_id":null,"name":"EchoStar 25","description":"EchoStar 25 is a direct broadcast satellite, built on the proven Maxar 1300 series platform, which will deliver content across North America. It will be equipped with a high-power, multi-spot beam payload, allowing DISH to provide high-quality content to its customers.","launch_designator":null,"type":"Communications","orbit":{"id":2,"name":"Geostationary Transfer Orbit","abbrev":"GTO"}},"pad":{"id":80,"url":"https://ll.thespacedevs.com/2.0.0/pad/80/","agency_id":121,"name":"Space Launch Complex 40","info_url":null,"wiki_url":"https://en.wikipedia.org/wiki/Cape_Canaveral_Air_Force_Station_Space_Launch_Complex_40","map_url":"https://www.google.com/maps?q=28.56194122,-80.57735736","latitude":"28.56194122","longitude":"-80.57735736","location":{"id":12,"url":"https://ll.thespacedevs.com/2.0.0/location/12/","name":"Cape Canaveral SFS, FL, USA","country_code":"USA","map_image":"https://thespacedevs-prod.nyc3.digitaloceanspaces.com/media/map_images/location_12_20200803142519.jpg","total_launch_count":1089,"total_landing_count":71},"map_image":"https://thespacedevs-prod.nyc3.digitaloceanspaces.com/media/map_images/pad_80_20200803143323.jpg","total_launch_count":366},"webcast_live":false,"image":"https://thespacedevs-prod.nyc3.digitaloceanspaces.com/media/images/falcon_9_image_20230807133459.jpeg","infographic":null,"program":[]},{"id":"d44f47c7-5e3e-40fb-9d10-b6e851acf81a","url":"https://ll.thespacedevs.com/2.0.0/launch/d44f47c7-5e3e-40fb-9d10-b6e851acf81a/","launch_library_id":null,"slug":"falcon-9-block-5-starlink-group-17-31","name":"Falcon 9 Block 5 | Starlink Group 17-31","status":{"id":1,"name":"Go"},"net":"2026-03-08T10:58:00Z","window_end":"2026-03-08T14:58:00Z","window_start":"2026-03-08T10:58:00Z","inhold":false,"tbdtime":false,"tbddate":false,"probability":null,"holdreason":"","failreason":"","hashtag":null,"launch_service_provider":{"id":121,"url":"https://ll.thespacedevs.com/2.0.0/agencies/121/","name":"SpaceX","type":"Commercial"},"rocket":{"id":8922,"configuration":{"id":164,"launch_library_id":188,"url":"https://ll.thespacedevs.com/2.0.0/config/launcher/164/","name":"Falcon 9","family":"Falcon","full_name":"Falcon 9 Block 5","variant":"Block 5"}},"mission":{"id":7514,"launch_library_id":null,"name":"Starlink Group 17-31","description":"A batch of 25 satellites for the Starlink mega-constellation - SpaceX's project for space-based Internet communication system.","launch_designator":null,"type":"Communications","orbit":{"id":8,"name":"Low Earth Orbit","abbrev":"LEO"}},"pad":{"id":16,"url":"https://ll.thespacedevs.com/2.0.0/pad/16/","agency_id":null,"name":"Space Launch Complex 4E","info_url":null,"wiki_url":"https://en.wikipedia.org/wiki/Vandenberg_Space_Launch_Complex_4#SLC-4E","map_url":"https://www.google.com/maps?q=34.632,-120.611","latitude":"34.632","longitude":"-120.611","location":{"id":11,"url":"https://ll.thespacedevs.com/2.0.0/location/11/","name":"Vandenberg SFB, CA, USA","country_code":"USA","map_image":"https://thespacedevs-prod.nyc3.digitaloceanspaces.com/media/map_images/location_11_20200803142416.jpg","total_launch_count":864,"total_landing_count":33},"map_image":"https://thespacedevs-prod.nyc3.digitaloceanspaces.com/media/map_images/pad_16_20200803143532.jpg","total_launch_count":250},"webcast_live":false,"image":"https://thespacedevs-prod.nyc3.digitaloceanspaces.com/media/images/falcon2520925_image_20221009234147.png","infographic":null,"program":[{"id":25,"url":"https://ll.thespacedevs.com/2.0.0/program/25/","name":"Starlink","description":"Starlink is a satellite internet constellation operated by American aerospace company SpaceX","agencies":[{"id":121,"url":"https://ll.thespacedevs.com/2.0.0/agencies/121/","name":"SpaceX","type":"Commercial"}],"image_url":"https://thespacedevs-prod.nyc3.digitaloceanspaces.com/media/images/starlink_program_20231228154508.jpeg","start_date":"2018-02-22T14:17:00Z","end_date":null,"info_url":"https://starlink.com","wiki_url":"https://en.wikipedia.org/wiki/Starlink"}]}]}